<?xml version="1.0" encoding="utf-8"?>
<!-- Generator: Adobe Illustrator 22.1.0, SVG Export Plug-In . SVG Version: 6.00 Build 0)  -->
<svg version="1.1" id="Layer_1" xmlns="http://www.w3.org/2000/svg" xmlns:xlink="http://www.w3.org/1999/xlink" x="0px" y="0px"
	 viewBox="0 0 300 300" style="enable-background:new 0 0 300 300;" xml:space="preserve">
<style type="text/css">
	.st0{fill:#EDEDED;}
	.st1{fill:#BABABA;}
	.st2{fill:#939393;}
</style>
<rect y="0" class="st0" width="300" height="300"/>
<g>
	<path class="st1" d="M89,156c0,1.1-0.3,2.1-1,2.9c-0.7,0.8-1.7,1.3-2.9,1.6v0.1c1.5,0.2,2.6,0.6,3.3,1.3s1.1,1.7,1.1,2.9
		c0,1.7-0.6,3.1-1.9,4.1s-3.1,1.5-5.4,1.5c-2,0-3.7-0.3-5.2-1v-3.3c0.7,0.4,1.5,0.6,2.3,0.9c0.8,0.2,1.7,0.3,2.5,0.3
		c1.3,0,2.2-0.2,2.8-0.6s0.9-1.1,0.9-2.1c0-0.9-0.3-1.5-1-1.8c-0.7-0.4-1.8-0.5-3.3-0.5h-1.4v-2.9h1.4c1.4,0,2.4-0.2,3.1-0.6
		c0.6-0.4,1-1,1-1.9c0-1.4-0.9-2.1-2.6-2.1c-0.6,0-1.2,0.1-1.8,0.3s-1.3,0.5-2.1,1l-1.8-2.6c1.7-1.2,3.6-1.8,5.9-1.8
		c1.9,0,3.4,0.4,4.5,1.1C88.4,153.6,89,154.7,89,156z"/>
	<path class="st1" d="M104.1,161c0,3.2-0.5,5.5-1.6,7c-1,1.5-2.6,2.3-4.8,2.3c-2.1,0-3.7-0.8-4.7-2.4c-1.1-1.6-1.6-3.9-1.6-7
		c0-3.2,0.5-5.6,1.6-7.1c1-1.5,2.6-2.3,4.8-2.3c2.1,0,3.7,0.8,4.7,2.4C103.6,155.7,104.1,158,104.1,161z M95.2,161
		c0,2.2,0.2,3.8,0.6,4.8c0.4,1,1,1.4,1.9,1.4c0.9,0,1.5-0.5,1.9-1.5c0.4-1,0.6-2.6,0.6-4.8c0-2.2-0.2-3.8-0.6-4.8
		c-0.4-1-1-1.5-1.9-1.5c-0.9,0-1.5,0.5-1.9,1.5C95.4,157.2,95.2,158.8,95.2,161z"/>
	<path class="st1" d="M118.6,161c0,3.2-0.5,5.5-1.6,7c-1,1.5-2.6,2.3-4.8,2.3c-2.1,0-3.7-0.8-4.7-2.4c-1.1-1.6-1.6-3.9-1.6-7
		c0-3.2,0.5-5.6,1.6-7.1c1-1.5,2.6-2.3,4.8-2.3c2.1,0,3.7,0.8,4.7,2.4C118.1,155.7,118.6,158,118.6,161z M109.7,161
		c0,2.2,0.2,3.8,0.6,4.8c0.4,1,1,1.4,1.9,1.4c0.9,0,1.5-0.5,1.9-1.5c0.4-1,0.6-2.6,0.6-4.8c0-2.2-0.2-3.8-0.6-4.8
		c-0.4-1-1-1.5-1.9-1.5c-0.9,0-1.5,0.5-1.9,1.5C109.9,157.2,109.7,158.8,109.7,161z"/>
	<path class="st1" d="M143.1,170.1h-4.4l-4.2-6.9l-4.2,6.9h-4.1l6-9.4l-5.6-8.8h4.2l3.9,6.5l3.8-6.5h4.1l-5.7,9L143.1,170.1z"/>
	<path class="st1" d="M162.7,156c0,1.1-0.3,2.1-1,2.9c-0.7,0.8-1.7,1.3-2.9,1.6v0.1c1.5,0.2,2.6,0.6,3.3,1.3s1.1,1.7,1.1,2.9
		c0,1.7-0.6,3.1-1.9,4.1c-1.3,1-3.1,1.5-5.4,1.5c-2,0-3.7-0.3-5.2-1v-3.3c0.7,0.4,1.5,0.6,2.3,0.9c0.8,0.2,1.7,0.3,2.5,0.3
		c1.3,0,2.2-0.2,2.8-0.6c0.6-0.4,0.9-1.1,0.9-2.1c0-0.9-0.3-1.5-1-1.8c-0.7-0.4-1.8-0.5-3.3-0.5h-1.4v-2.9h1.4
		c1.4,0,2.4-0.2,3.1-0.6c0.6-0.4,1-1,1-1.9c0-1.4-0.9-2.1-2.6-2.1c-0.6,0-1.2,0.1-1.8,0.3c-0.6,0.2-1.3,0.5-2.1,1l-1.8-2.6
		c1.7-1.2,3.6-1.8,5.9-1.8c1.9,0,3.4,0.4,4.5,1.1C162.1,153.6,162.7,154.7,162.7,156z"/>
	<path class="st1" d="M177.8,161c0,3.2-0.5,5.5-1.6,7c-1,1.5-2.6,2.3-4.8,2.3c-2.1,0-3.7-0.8-4.7-2.4s-1.6-3.9-1.6-7
		c0-3.2,0.5-5.6,1.6-7.1c1-1.5,2.6-2.3,4.8-2.3c2.1,0,3.7,0.8,4.7,2.4C177.3,155.7,177.8,158,177.8,161z M168.9,161
		c0,2.2,0.2,3.8,0.6,4.8c0.4,1,1,1.4,1.9,1.4c0.9,0,1.5-0.5,1.9-1.5c0.4-1,0.6-2.6,0.6-4.8c0-2.2-0.2-3.8-0.6-4.8
		c-0.4-1-1-1.5-1.9-1.5c-0.9,0-1.5,0.5-1.9,1.5C169.1,157.2,168.9,158.8,168.9,161z"/>
	<path class="st1" d="M192.3,161c0,3.2-0.5,5.5-1.6,7c-1,1.5-2.6,2.3-4.8,2.3c-2.1,0-3.7-0.8-4.7-2.4s-1.6-3.9-1.6-7
		c0-3.2,0.5-5.6,1.6-7.1c1-1.5,2.6-2.3,4.8-2.3c2.1,0,3.7,0.8,4.7,2.4C191.8,155.7,192.3,158,192.3,161z M183.4,161
		c0,2.2,0.2,3.8,0.6,4.8c0.4,1,1,1.4,1.9,1.4c0.9,0,1.5-0.5,1.9-1.5c0.4-1,0.6-2.6,0.6-4.8c0-2.2-0.2-3.8-0.6-4.8
		c-0.4-1-1-1.5-1.9-1.5c-0.9,0-1.5,0.5-1.9,1.5C183.6,157.2,183.4,158.8,183.4,161z"/>
	<path class="st1" d="M202.8,170.4c-1.6,0-2.9-0.6-3.8-1.8h-0.2c0.1,1.2,0.2,1.8,0.2,2v5.6h-3.8v-20h3.1l0.5,1.8h0.2
		c0.9-1.4,2.2-2.1,3.9-2.1c1.6,0,2.9,0.6,3.8,1.9s1.4,3,1.4,5.3c0,1.5-0.2,2.8-0.7,3.9c-0.4,1.1-1.1,1.9-1.9,2.5
		C204.9,170.1,203.9,170.4,202.8,170.4z M201.7,159c-0.9,0-1.6,0.3-2,0.9c-0.4,0.6-0.7,1.5-0.7,2.8v0.4c0,1.5,0.2,2.6,0.7,3.2
		c0.4,0.6,1.1,1,2.1,1c1.7,0,2.5-1.4,2.5-4.2c0-1.4-0.2-2.4-0.6-3.1C203.3,159.3,202.6,159,201.7,159z"/>
	<path class="st1" d="M214.1,163l-4.5-6.8h4.3l2.7,4.4l2.7-4.4h4.3l-4.5,6.8l4.7,7.1h-4.3l-2.9-4.8l-2.9,4.8h-4.3L214.1,163z"/>
</g>
<g>
	<path class="st2" d="M88.3,130c0,1.6-0.5,2.8-1.5,3.6c-1,0.8-2.4,1.3-4.2,1.3h-1.3v5.2h-3.1v-14.7h4.7c1.8,0,3.1,0.4,4.1,1.1
		S88.3,128.4,88.3,130z M81.3,132.3h1c1,0,1.7-0.2,2.1-0.6c0.5-0.4,0.7-0.9,0.7-1.7c0-0.7-0.2-1.3-0.6-1.6c-0.4-0.3-1-0.5-1.9-0.5
		h-1.4V132.3z"/>
	<path class="st2" d="M91.1,140v-14.7h3.1v12.1h6v2.6H91.1z"/>
	<path class="st2" d="M111.7,140l-1.1-3.5h-5.3l-1.1,3.5h-3.4l5.2-14.7h3.8l5.2,14.7H111.7z M109.9,133.9c-1-3.2-1.5-5-1.7-5.4
		c-0.1-0.4-0.2-0.7-0.3-1c-0.2,0.9-0.9,3-1.9,6.4H109.9z"/>
	<path class="st2" d="M123.1,127.8c-1.2,0-2.1,0.4-2.7,1.3c-0.6,0.9-1,2.1-1,3.7c0,3.3,1.2,4.9,3.7,4.9c1,0,2.3-0.3,3.7-0.8v2.6
		c-1.2,0.5-2.5,0.8-4,0.8c-2.1,0-3.8-0.6-4.9-1.9c-1.1-1.3-1.7-3.2-1.7-5.6c0-1.5,0.3-2.9,0.8-4c0.6-1.1,1.4-2,2.4-2.6
		c1-0.6,2.3-0.9,3.7-0.9c1.4,0,2.9,0.3,4.3,1l-1,2.5c-0.5-0.3-1.1-0.5-1.7-0.7C124.2,127.9,123.7,127.8,123.1,127.8z"/>
	<path class="st2" d="M138.4,140H130v-14.7h8.5v2.5h-5.3v3.2h5v2.5h-5v3.8h5.3V140z"/>
	<path class="st2" d="M153.5,140h-3.1v-6.3h-5.8v6.3h-3.1v-14.7h3.1v5.8h5.8v-5.8h3.1V140z"/>
	<path class="st2" d="M170.5,132.7c0,2.4-0.6,4.3-1.8,5.6c-1.2,1.3-2.9,2-5.2,2c-2.2,0-4-0.7-5.2-2c-1.2-1.3-1.8-3.2-1.8-5.6
		s0.6-4.3,1.8-5.6c1.2-1.3,2.9-1.9,5.2-1.9c2.3,0,4,0.6,5.2,1.9C169.9,128.4,170.5,130.3,170.5,132.7z M159.8,132.7
		c0,1.6,0.3,2.9,0.9,3.7c0.6,0.8,1.6,1.2,2.8,1.2c2.5,0,3.7-1.6,3.7-4.9c0-3.3-1.2-5-3.7-5c-1.2,0-2.2,0.4-2.8,1.2
		S159.8,131.1,159.8,132.7z"/>
	<path class="st2" d="M173.6,140v-14.7h3.1v12.1h6v2.6H173.6z"/>
	<path class="st2" d="M197.4,132.6c0,2.4-0.7,4.3-2.1,5.5c-1.4,1.3-3.4,1.9-6,1.9h-4.2v-14.7h4.6c2.4,0,4.3,0.6,5.6,1.9
		C196.7,128.5,197.4,130.3,197.4,132.6z M194.1,132.7c0-3.2-1.4-4.7-4.2-4.7h-1.7v9.6h1.3C192.6,137.5,194.1,135.9,194.1,132.7z"/>
	<path class="st2" d="M208.9,140h-8.4v-14.7h8.4v2.5h-5.3v3.2h5v2.5h-5v3.8h5.3V140z"/>
	<path class="st2" d="M215,134.4v5.6h-3.1v-14.7h4.3c2,0,3.5,0.4,4.4,1.1c1,0.7,1.4,1.8,1.4,3.3c0,0.9-0.2,1.6-0.7,2.3
		c-0.5,0.7-1.1,1.2-2,1.6c2.2,3.3,3.6,5.4,4.3,6.4h-3.5l-3.5-5.6H215z M215,131.9h1c1,0,1.7-0.2,2.2-0.5c0.5-0.3,0.7-0.8,0.7-1.5
		c0-0.7-0.2-1.2-0.7-1.5s-1.2-0.4-2.2-0.4H215V131.9z"/>
</g>
</svg>
